^C:\USERS\KKEIPER1103.SSCT\DESKTOP\C++ PROJECTS\OBJ-VIEWER\DEBUG\APP.OBJ|C:\USERS\KKEIPER1103.SSCT\DESKTOP\C++ PROJECTS\OBJ-VIEWER\DEBUG\MAIN.OBJ|C:\USERS\KKEIPER1103.SSCT\DESKTOP\C++ PROJECTS\OBJ-VIEWER\DEBUG\MODEL3D.OBJ|C:\USERS\KKEIPER1103.SSCT\DESKTOP\C++ PROJECTS\OBJ-VIEWER\DEBUG\TINY_OBJ_LOADER.OBJ
C:\USERS\KKEIPER1103.SSCT\DESKTOP\C++ PROJECTS\OBJ-VIEWER\DEBUG\OBJ VIEWER.ILK
C:\USERS\KKEIPER1103.SSCT\DESKTOP\C++ PROJECTS\OBJ-VIEWER\DEBUG\OBJ VIEWER.EXE
C:\USERS\KKEIPER1103.SSCT\DESKTOP\C++ PROJECTS\OBJ-VIEWER\DEBUG\OBJ VIEWER.PDB
